{
  "variables": [
    "objectId"
  ],
  "scenario": {
    "login": {
      "url": "/login",
      "method": "get",
      "params": {
        "tags": {
          "name": "login form"
        }
      },
      "form": {
        "form_selector": "#login-form > form",
        "fields": {
          "username": "admin",
          "password": "diplomka"
        },
        "params": {
          "tags": {
            "name": "login"
          }
        },
        "checks": [
          {
            "message": "logged in successfully",
            "subject": "r.status",
            "operator": "===",
            "compare": "200"
          }
        ]
      },
      "checks": [
        {
          "message": "page loaded successfully",
          "subject": "r.status",
          "operator": "===",
          "compare": "200"
        }
      ]
    },
    "list_issues": {
      "url": "/issues",
      "method": "get",
      "retrieve_object": {
        "selector": ".issue",
        "position": 0,
        "retrieve_method": "replace('issue-', '')"
      },
      "params": {
        "tags": {
          "name": "issues"
        }
      },
      "checks": [
        {
          "message": "page loaded successfully",
          "subject": "r.status",
          "operator": "===",
          "compare": "200"
        },
        {
          "message": "retrieved issues",
          "subject": "r.html().find('.issue').size()",
          "operator": ">",
          "compare": "0"
        }
      ]
    },
    "click_on_issue": {
      "url": "/issues/${objectId}",
      "method": "get",
      "params": {
        "tags": {
          "name": "issue"
        }
      },
      "checks": [
        {
          "message": "page loaded successfully",
          "subject": "r.status",
          "operator": "===",
          "compare": "200"
        }
      ]
    },
    "logout": {
      "url": "/logout",
      "method": "get",
      "params": {
        "tags": {
          "name": "logout form"
        }
      },
      "form": {
        "form_selector": "#content > form",
        "params": {
          "tags": {
            "name": "logout"
          }
        },
        "checks": [
          {
            "message": "logged out successfully",
            "subject": "r.status",
            "operator": "===",
            "compare": "200"
          }
        ]
      },
      "checks": [
        {
          "message": "page loaded successfully",
          "subject": "r.status",
          "operator": "===",
          "compare": "200"
        }
      ]
    }
  }
}
