{
  "variables": [
    "objectId"
  ],
  "scenario": {
    "login": {
      "url": "/login",
      "method": "get",
      "params": {
        "tags": {
          "name": "login form"
        }
      },
      "form": {
        "form_selector": "#login-form > form",
        "fields": {
          "username": "admin",
          "password": "diplomka"
        },
        "params": {
          "tags": {
            "name": "login"
          }
        },
        "checks": [
          {
            "message": "logged in successfully",
            "subject": "r.status",
            "operator": "===",
            "compare": "200"
          }
        ]
      },
      "checks": [
        {
          "message": "page loaded successfully",
          "subject": "r.status",
          "operator": "===",
          "compare": "200"
        }
      ]
    },
    "list_issues": {
      "url": "/issues",
      "method": "get",
      "params": {
        "tags": {
          "name": "issues"
        }
      },
      "checks": [
        {
          "message": "page loaded successfully",
          "subject": "r.status",
          "operator": "===",
          "compare": "200"
        },
        {
          "message": "retrieved issues",
          "subject": "r.html().find('.issue').size()",
          "operator": ">",
          "compare": "0"
        }
      ]
    },
    "create_issue": {
      "url": "/issues/new",
      "method": "get",
      "params": {
        "tags": {
          "name": "new_issue"
        }
      },
      "checks": [
        {
          "message": "page loaded successfully",
          "subject": "r.status",
          "operator": "===",
          "compare": "200"
        }
      ],
      "form": {
        "form_selector": "#issue-form",
        "fields": {
          "issue[project_id]": 1,
          "issue[tracker_id]": 1,
          "issue[subject]": "Test k6 subject",
          "issue[status_id]": 4,
          "issue[priority_id]": 3
        },
        "params": {
          "tags": {
            "name": "create_issue"
          }
        },
        "checks": [
          {
            "message": "issue created successfully",
            "subject": "r.status",
            "operator": "===",
            "compare": "200"
          }
        ]
      }
    },
    "list_issues2": {
      "url": "/issues",
      "method": "get",
      "retrieve_object": {
        "selector": ".issue",
        "position": 0,
        "retrieve_method": "replace('issue-', '')"
      },
      "params": {
        "tags": {
          "name": "issues"
        }
      },
      "checks": [
        {
          "message": "page loaded successfully",
          "subject": "r.status",
          "operator": "===",
          "compare": "200"
        },
        {
          "message": "retrieved issues",
          "subject": "r.html().find('.issue').size()",
          "operator": ">",
          "compare": "0"
        }
      ]
    },
    "click_on_issue": {
      "url": "/issues/${objectId}",
      "method": "get",
      "params": {
        "tags": {
          "name": "issue"
        }
      },
      "checks": [
        {
          "message": "page loaded successfully",
          "subject": "r.status",
          "operator": "===",
          "compare": "200"
        }
      ]
    },
    "edit_issue": {
      "url": "/issues/${objectId}/edit",
      "method": "get",
      "params": {
        "tags": {
          "name": "edit_issue"
        }
      },
      "form": {
        "form_selector": "#issue-form",
        "fields": {
          "issue[done_ratio]": 10
        },
        "params": {
          "tags": {
            "name": "update_issue"
          }
        },
        "checks": [
          {
            "message": "issue edited successfully",
            "subject": "r.status",
            "operator": "===",
            "compare": "200"
          }
        ]
      }
    },
    "list_projects": {
      "url": "/projects",
      "method": "get",
      "params": {
        "tags": {
          "name": "projects"
        }
      },
      "checks": [
        {
          "message": "page loaded successfully",
          "subject": "r.status",
          "operator": "===",
          "compare": "200"
        },
        {
          "message": "retrieved projects",
          "subject": "r.html().find('.project').size()",
          "operator": ">",
          "compare": "0"
        }
      ],
      "link": {
        "selector": ".project",
        "position": 1,
        "params": {
          "tags": {
            "name": "project"
          }
        },
        "checks": [
          {
            "message": "page loaded successfully",
            "subject": "r.status",
            "operator": "===",
            "compare": "200"
          }
        ]
      }
    },
    "list_issues3": {
      "url": "/issues",
      "method": "get",
      "retrieve_object": {
        "selector": ".issue",
        "position": 0,
        "retrieve_method": "replace('issue-', '')"
      },
      "params": {
        "tags": {
          "name": "issues"
        }
      },
      "checks": [
        {
          "message": "page loaded successfully",
          "subject": "r.status",
          "operator": "===",
          "compare": "200"
        },
        {
          "message": "retrieved issues",
          "subject": "r.html().find('.issue').size()",
          "operator": ">",
          "compare": "0"
        }
      ]
    },
    "click_on_issue2": {
      "url": "/issues/${objectId}",
      "method": "get",
      "params": {
        "tags": {
          "name": "issue"
        }
      },
      "checks": [
        {
          "message": "page loaded successfully",
          "subject": "r.status",
          "operator": "===",
          "compare": "200"
        }
      ]
    },
    "spent_time_on_issue": {
      "url": "/issues/${objectId}/time_entries/new",
      "method": "get",
      "params": {
        "tags": {
          "name": "new_time_entry"
        }
      },
      "checks": [
        {
          "message": "page loaded successfully",
          "subject": "r.status",
          "operator": "===",
          "compare": "200"
        }
      ],
      "form": {
        "form_selector": "#new_time_entry",
        "fields": {
          "time_entry[hours]": 0.02,
          "time_entry[comments]": "My Time Entry",
          "time_entry[user_id]": "1"
        },
        "params": {
          "tags": {
            "name": "create_time_entry"
          }
        },
        "checks": [
          {
            "message": "Time entry created successfully",
            "subject": "r.status",
            "operator": "===",
            "compare": "200"
          }
        ]
      }
    },
    "list_time_entries": {
      "url": "/time_entries",
      "method": "get",
      "retrieve_object": {
        "selector": ".time-entry",
        "position": 0,
        "retrieve_method": "replace('time-entry-', '')"
      },
      "params": {
        "tags": {
          "name": "time_entries"
        }
      },
      "checks": [
        {
          "message": "page loaded successfully",
          "subject": "r.status",
          "operator": "===",
          "compare": "200"
        },
        {
          "message": "retrieved time entries",
          "subject": "r.html().find('.time-entry').size()",
          "operator": ">",
          "compare": "0"
        }
      ]
    },
    "edit_spent_time": {
      "url": "/time_entries/${objectId}/edit",
      "method": "get",
      "params": {
        "tags": {
          "name": "edit_time_entry"
        }
      },
      "checks": [
        {
          "message": "page loaded successfully",
          "subject": "r.status",
          "operator": "===",
          "compare": "200"
        }
      ],
      "form": {
        "form_selector": "#edit_time_entry_${objectId}",
        "fields": {
          "time_entry[hours]": 0.01
        },
        "params": {
          "tags": {
            "name": "update_time_entry"
          }
        },
        "checks": [
          {
            "message": "Time entry edited successfully",
            "subject": "r.status",
            "operator": "===",
            "compare": "200"
          }
        ]
      }
    },
    "logout": {
      "url": "/logout",
      "method": "get",
      "params": {
        "tags": {
          "name": "logout form"
        }
      },
      "form": {
        "form_selector": "#content > form",
        "params": {
          "tags": {
            "name": "logout"
          }
        },
        "checks": [
          {
            "message": "logged out successfully",
            "subject": "r.status",
            "operator": "===",
            "compare": "200"
          }
        ]
      },
      "checks": [
        {
          "message": "page loaded successfully",
          "subject": "r.status",
          "operator": "===",
          "compare": "200"
        }
      ]
    }
  }
}
