{
  "variables": [
    "objectId"
  ],
  "scenario": {
    "list_project": {
      "url": "/projects.json",
      "method": "get",
      "format": "json",
      "retrieve_object": {
        "collection": "projects",
        "position": 0
      },
      "checks": [
        {
          "message": "retrieved projects",
          "subject": "r['projects'].length",
          "operator": ">",
          "compare": "0"
        }
      ]
    },
    "click_on_project": {
      "url": "/projects/${objectId}.json",
      "method": "get",
      "format": "json",
      "checks": [
        {
          "message": "retrieved project",
          "subject": "r['project']['id']",
          "operator": "===",
          "compare": "objectId"
        }
      ]
    },
    "check_activities": {
      "url": "/projects/${objectId}/activity",
      "method": "get",
      "checks": [
        {
          "message": "status was 200",
          "subject": "r.status",
          "operator": "===",
          "compare": "200"
        }
      ]
    }
  }
}
