{
  "scenario": {
    "login": {
      "url": "/login",
      "method": "get",
      "checks": [
        {
          "message": "logged in successfully",
          "subject": "r.status",
          "operator": "===",
          "compare": "200"
        }
      ]
    }
  }
}
